<mxfile host="app.diagrams.net" modified="2023-09-30T16:12:49.055Z" agent="Mozilla/5.0 (Windows NT 10.0; Win64; x64) AppleWebKit/537.36 (KHTML, like Gecko) Chrome/115.0.0.0 Safari/537.36" etag="x9SD8L7GUxQV0gP386d3" version="22.0.0" type="device">
  <diagram id="R2lEEEUBdFMjLlhIrx00" name="Page-1">
    <mxGraphModel dx="880" dy="470" grid="0" gridSize="10" guides="1" tooltips="1" connect="1" arrows="1" fold="1" page="1" pageScale="1" pageWidth="1100" pageHeight="850" background="#FFFFFF" math="0" shadow="0" extFonts="Permanent Marker^https://fonts.googleapis.com/css?family=Permanent+Marker">
      <root>
        <mxCell id="0" />
        <mxCell id="1" parent="0" />
        <mxCell id="HgbUeuQE3SL_m8R81Lgc-1" value="Users" style="rounded=0;whiteSpace=wrap;html=1;" parent="1" vertex="1">
          <mxGeometry x="270" y="200" width="80" height="40" as="geometry" />
        </mxCell>
        <mxCell id="HgbUeuQE3SL_m8R81Lgc-2" value="Admin" style="rounded=0;whiteSpace=wrap;html=1;" parent="1" vertex="1">
          <mxGeometry x="530" y="200" width="80" height="40" as="geometry" />
        </mxCell>
        <mxCell id="HgbUeuQE3SL_m8R81Lgc-3" value="Bookings" style="rounded=0;whiteSpace=wrap;html=1;" parent="1" vertex="1">
          <mxGeometry x="400" y="340" width="90" height="50" as="geometry" />
        </mxCell>
        <mxCell id="HgbUeuQE3SL_m8R81Lgc-4" value="has" style="rhombus;whiteSpace=wrap;html=1;" parent="1" vertex="1">
          <mxGeometry x="280" y="280" width="80" height="60" as="geometry" />
        </mxCell>
        <mxCell id="HgbUeuQE3SL_m8R81Lgc-5" value="manages" style="rhombus;whiteSpace=wrap;html=1;rotation=0;" parent="1" vertex="1">
          <mxGeometry x="530" y="270" width="80" height="60" as="geometry" />
        </mxCell>
        <mxCell id="HgbUeuQE3SL_m8R81Lgc-6" value="" style="endArrow=none;html=1;rounded=0;exitX=0.5;exitY=0;exitDx=0;exitDy=0;entryX=0.614;entryY=1.027;entryDx=0;entryDy=0;entryPerimeter=0;" parent="1" source="HgbUeuQE3SL_m8R81Lgc-4" target="HgbUeuQE3SL_m8R81Lgc-1" edge="1">
          <mxGeometry width="50" height="50" relative="1" as="geometry">
            <mxPoint x="200" y="300" as="sourcePoint" />
            <mxPoint x="250" y="250" as="targetPoint" />
          </mxGeometry>
        </mxCell>
        <mxCell id="HgbUeuQE3SL_m8R81Lgc-49" value="m" style="edgeLabel;html=1;align=center;verticalAlign=middle;resizable=0;points=[];" parent="HgbUeuQE3SL_m8R81Lgc-6" vertex="1" connectable="0">
          <mxGeometry x="0.158" y="-1" relative="1" as="geometry">
            <mxPoint as="offset" />
          </mxGeometry>
        </mxCell>
        <mxCell id="HgbUeuQE3SL_m8R81Lgc-7" value="" style="endArrow=none;html=1;rounded=0;exitX=0;exitY=0.5;exitDx=0;exitDy=0;entryX=0.5;entryY=1;entryDx=0;entryDy=0;" parent="1" source="HgbUeuQE3SL_m8R81Lgc-3" target="HgbUeuQE3SL_m8R81Lgc-4" edge="1">
          <mxGeometry width="50" height="50" relative="1" as="geometry">
            <mxPoint x="280" y="390" as="sourcePoint" />
            <mxPoint x="330" y="340" as="targetPoint" />
          </mxGeometry>
        </mxCell>
        <mxCell id="HgbUeuQE3SL_m8R81Lgc-50" value="n" style="edgeLabel;html=1;align=center;verticalAlign=middle;resizable=0;points=[];" parent="HgbUeuQE3SL_m8R81Lgc-7" vertex="1" connectable="0">
          <mxGeometry x="-0.1336" relative="1" as="geometry">
            <mxPoint as="offset" />
          </mxGeometry>
        </mxCell>
        <mxCell id="HgbUeuQE3SL_m8R81Lgc-8" value="" style="endArrow=none;html=1;rounded=0;exitX=1;exitY=0.5;exitDx=0;exitDy=0;entryX=0.5;entryY=1;entryDx=0;entryDy=0;" parent="1" source="HgbUeuQE3SL_m8R81Lgc-3" target="HgbUeuQE3SL_m8R81Lgc-5" edge="1">
          <mxGeometry width="50" height="50" relative="1" as="geometry">
            <mxPoint x="540" y="410" as="sourcePoint" />
            <mxPoint x="590" y="360" as="targetPoint" />
          </mxGeometry>
        </mxCell>
        <mxCell id="HgbUeuQE3SL_m8R81Lgc-52" value="m" style="edgeLabel;html=1;align=center;verticalAlign=middle;resizable=0;points=[];" parent="HgbUeuQE3SL_m8R81Lgc-8" vertex="1" connectable="0">
          <mxGeometry x="0.1041" y="-1" relative="1" as="geometry">
            <mxPoint as="offset" />
          </mxGeometry>
        </mxCell>
        <mxCell id="HgbUeuQE3SL_m8R81Lgc-9" value="" style="endArrow=none;html=1;rounded=0;exitX=0.5;exitY=0;exitDx=0;exitDy=0;entryX=0.5;entryY=1;entryDx=0;entryDy=0;" parent="1" source="HgbUeuQE3SL_m8R81Lgc-5" target="HgbUeuQE3SL_m8R81Lgc-2" edge="1">
          <mxGeometry width="50" height="50" relative="1" as="geometry">
            <mxPoint x="570" y="290" as="sourcePoint" />
            <mxPoint x="620" y="240" as="targetPoint" />
          </mxGeometry>
        </mxCell>
        <mxCell id="HgbUeuQE3SL_m8R81Lgc-51" value="1" style="edgeLabel;html=1;align=center;verticalAlign=middle;resizable=0;points=[];" parent="HgbUeuQE3SL_m8R81Lgc-9" vertex="1" connectable="0">
          <mxGeometry x="0.2606" y="-1" relative="1" as="geometry">
            <mxPoint as="offset" />
          </mxGeometry>
        </mxCell>
        <mxCell id="HgbUeuQE3SL_m8R81Lgc-10" value="First name" style="ellipse;whiteSpace=wrap;html=1;" parent="1" vertex="1">
          <mxGeometry x="180" y="130" width="70" height="40" as="geometry" />
        </mxCell>
        <mxCell id="HgbUeuQE3SL_m8R81Lgc-11" value="user ID" style="ellipse;whiteSpace=wrap;html=1;" parent="1" vertex="1">
          <mxGeometry x="270" y="130" width="70" height="40" as="geometry" />
        </mxCell>
        <mxCell id="HgbUeuQE3SL_m8R81Lgc-12" value="email" style="ellipse;whiteSpace=wrap;html=1;" parent="1" vertex="1">
          <mxGeometry x="110" y="210" width="70" height="40" as="geometry" />
        </mxCell>
        <mxCell id="HgbUeuQE3SL_m8R81Lgc-13" value="last name" style="ellipse;whiteSpace=wrap;html=1;" parent="1" vertex="1">
          <mxGeometry x="120" y="160" width="70" height="40" as="geometry" />
        </mxCell>
        <mxCell id="HgbUeuQE3SL_m8R81Lgc-14" value="phone number" style="ellipse;whiteSpace=wrap;html=1;" parent="1" vertex="1">
          <mxGeometry x="130" y="260" width="70" height="40" as="geometry" />
        </mxCell>
        <mxCell id="HgbUeuQE3SL_m8R81Lgc-15" value="address" style="ellipse;whiteSpace=wrap;html=1;" parent="1" vertex="1">
          <mxGeometry x="190" y="290" width="70" height="40" as="geometry" />
        </mxCell>
        <mxCell id="HgbUeuQE3SL_m8R81Lgc-17" value="" style="endArrow=none;html=1;rounded=0;exitX=1;exitY=0.5;exitDx=0;exitDy=0;" parent="1" source="HgbUeuQE3SL_m8R81Lgc-12" target="HgbUeuQE3SL_m8R81Lgc-1" edge="1">
          <mxGeometry width="50" height="50" relative="1" as="geometry">
            <mxPoint x="120" y="280" as="sourcePoint" />
            <mxPoint x="170" y="230" as="targetPoint" />
          </mxGeometry>
        </mxCell>
        <mxCell id="HgbUeuQE3SL_m8R81Lgc-18" value="" style="endArrow=none;html=1;rounded=0;exitX=0.6;exitY=1;exitDx=0;exitDy=0;exitPerimeter=0;entryX=0;entryY=0.5;entryDx=0;entryDy=0;" parent="1" source="HgbUeuQE3SL_m8R81Lgc-13" target="HgbUeuQE3SL_m8R81Lgc-1" edge="1">
          <mxGeometry width="50" height="50" relative="1" as="geometry">
            <mxPoint x="132" y="210" as="sourcePoint" />
            <mxPoint x="170" y="190" as="targetPoint" />
          </mxGeometry>
        </mxCell>
        <mxCell id="HgbUeuQE3SL_m8R81Lgc-19" value="" style="endArrow=none;html=1;rounded=0;exitX=0.771;exitY=0.075;exitDx=0;exitDy=0;exitPerimeter=0;entryX=0.25;entryY=1;entryDx=0;entryDy=0;" parent="1" source="HgbUeuQE3SL_m8R81Lgc-14" target="HgbUeuQE3SL_m8R81Lgc-1" edge="1">
          <mxGeometry width="50" height="50" relative="1" as="geometry">
            <mxPoint x="145" y="260" as="sourcePoint" />
            <mxPoint x="183" y="240" as="targetPoint" />
          </mxGeometry>
        </mxCell>
        <mxCell id="HgbUeuQE3SL_m8R81Lgc-20" value="" style="endArrow=none;html=1;rounded=0;entryX=0.5;entryY=1;entryDx=0;entryDy=0;" parent="1" source="HgbUeuQE3SL_m8R81Lgc-1" target="HgbUeuQE3SL_m8R81Lgc-10" edge="1">
          <mxGeometry width="50" height="50" relative="1" as="geometry">
            <mxPoint x="142" y="200" as="sourcePoint" />
            <mxPoint x="180" y="220" as="targetPoint" />
          </mxGeometry>
        </mxCell>
        <mxCell id="HgbUeuQE3SL_m8R81Lgc-21" value="" style="endArrow=none;html=1;rounded=0;exitX=0.5;exitY=1;exitDx=0;exitDy=0;entryX=0.438;entryY=0;entryDx=0;entryDy=0;entryPerimeter=0;" parent="1" source="HgbUeuQE3SL_m8R81Lgc-11" target="HgbUeuQE3SL_m8R81Lgc-1" edge="1">
          <mxGeometry width="50" height="50" relative="1" as="geometry">
            <mxPoint x="152" y="210" as="sourcePoint" />
            <mxPoint x="250" y="200" as="targetPoint" />
          </mxGeometry>
        </mxCell>
        <mxCell id="HgbUeuQE3SL_m8R81Lgc-23" value="" style="endArrow=none;html=1;rounded=0;exitX=0.753;exitY=0.118;exitDx=0;exitDy=0;entryX=0.5;entryY=1;entryDx=0;entryDy=0;exitPerimeter=0;" parent="1" source="HgbUeuQE3SL_m8R81Lgc-15" target="HgbUeuQE3SL_m8R81Lgc-1" edge="1">
          <mxGeometry width="50" height="50" relative="1" as="geometry">
            <mxPoint x="315" y="180" as="sourcePoint" />
            <mxPoint x="260" y="210" as="targetPoint" />
          </mxGeometry>
        </mxCell>
        <mxCell id="HgbUeuQE3SL_m8R81Lgc-25" value="user ID" style="ellipse;whiteSpace=wrap;html=1;" parent="1" vertex="1">
          <mxGeometry x="510" y="120" width="70" height="40" as="geometry" />
        </mxCell>
        <mxCell id="HgbUeuQE3SL_m8R81Lgc-26" value="First name" style="ellipse;whiteSpace=wrap;html=1;" parent="1" vertex="1">
          <mxGeometry x="590" y="120" width="70" height="40" as="geometry" />
        </mxCell>
        <mxCell id="HgbUeuQE3SL_m8R81Lgc-27" value="last name" style="ellipse;whiteSpace=wrap;html=1;" parent="1" vertex="1">
          <mxGeometry x="660" y="140" width="70" height="40" as="geometry" />
        </mxCell>
        <mxCell id="HgbUeuQE3SL_m8R81Lgc-29" value="email" style="ellipse;whiteSpace=wrap;html=1;" parent="1" vertex="1">
          <mxGeometry x="680" y="200" width="70" height="40" as="geometry" />
        </mxCell>
        <mxCell id="HgbUeuQE3SL_m8R81Lgc-30" value="phone number" style="ellipse;whiteSpace=wrap;html=1;" parent="1" vertex="1">
          <mxGeometry x="640" y="260" width="70" height="40" as="geometry" />
        </mxCell>
        <mxCell id="HgbUeuQE3SL_m8R81Lgc-31" value="" style="endArrow=none;html=1;rounded=0;" parent="1" source="HgbUeuQE3SL_m8R81Lgc-27" target="HgbUeuQE3SL_m8R81Lgc-2" edge="1">
          <mxGeometry width="50" height="50" relative="1" as="geometry">
            <mxPoint x="730" y="150" as="sourcePoint" />
            <mxPoint x="670" y="185" as="targetPoint" />
          </mxGeometry>
        </mxCell>
        <mxCell id="HgbUeuQE3SL_m8R81Lgc-32" value="" style="endArrow=none;html=1;rounded=0;entryX=0.125;entryY=0;entryDx=0;entryDy=0;exitX=0.5;exitY=1;exitDx=0;exitDy=0;entryPerimeter=0;" parent="1" source="HgbUeuQE3SL_m8R81Lgc-25" target="HgbUeuQE3SL_m8R81Lgc-2" edge="1">
          <mxGeometry width="50" height="50" relative="1" as="geometry">
            <mxPoint x="724" y="166" as="sourcePoint" />
            <mxPoint x="691" y="190" as="targetPoint" />
          </mxGeometry>
        </mxCell>
        <mxCell id="HgbUeuQE3SL_m8R81Lgc-33" value="" style="endArrow=none;html=1;rounded=0;" parent="1" source="HgbUeuQE3SL_m8R81Lgc-29" target="HgbUeuQE3SL_m8R81Lgc-2" edge="1">
          <mxGeometry width="50" height="50" relative="1" as="geometry">
            <mxPoint x="734" y="176" as="sourcePoint" />
            <mxPoint x="701" y="200" as="targetPoint" />
          </mxGeometry>
        </mxCell>
        <mxCell id="HgbUeuQE3SL_m8R81Lgc-34" value="" style="endArrow=none;html=1;rounded=0;" parent="1" source="HgbUeuQE3SL_m8R81Lgc-30" target="HgbUeuQE3SL_m8R81Lgc-2" edge="1">
          <mxGeometry width="50" height="50" relative="1" as="geometry">
            <mxPoint x="744" y="186" as="sourcePoint" />
            <mxPoint x="711" y="210" as="targetPoint" />
          </mxGeometry>
        </mxCell>
        <mxCell id="HgbUeuQE3SL_m8R81Lgc-35" value="" style="endArrow=none;html=1;rounded=0;entryX=0.5;entryY=1;entryDx=0;entryDy=0;" parent="1" source="HgbUeuQE3SL_m8R81Lgc-2" target="HgbUeuQE3SL_m8R81Lgc-26" edge="1">
          <mxGeometry width="50" height="50" relative="1" as="geometry">
            <mxPoint x="724" y="166" as="sourcePoint" />
            <mxPoint x="691" y="190" as="targetPoint" />
          </mxGeometry>
        </mxCell>
        <mxCell id="HgbUeuQE3SL_m8R81Lgc-37" value="Date" style="ellipse;whiteSpace=wrap;html=1;" parent="1" vertex="1">
          <mxGeometry x="330" y="430" width="70" height="40" as="geometry" />
        </mxCell>
        <mxCell id="HgbUeuQE3SL_m8R81Lgc-38" value="Start time" style="ellipse;whiteSpace=wrap;html=1;" parent="1" vertex="1">
          <mxGeometry x="400" y="450" width="70" height="40" as="geometry" />
        </mxCell>
        <mxCell id="HgbUeuQE3SL_m8R81Lgc-39" value="Booking ID" style="ellipse;whiteSpace=wrap;html=1;" parent="1" vertex="1">
          <mxGeometry x="300" y="380" width="70" height="40" as="geometry" />
        </mxCell>
        <mxCell id="HgbUeuQE3SL_m8R81Lgc-40" value="End time" style="ellipse;whiteSpace=wrap;html=1;" parent="1" vertex="1">
          <mxGeometry x="470" y="430" width="70" height="40" as="geometry" />
        </mxCell>
        <mxCell id="HgbUeuQE3SL_m8R81Lgc-41" value="Purpose" style="ellipse;whiteSpace=wrap;html=1;" parent="1" vertex="1">
          <mxGeometry x="520" y="380" width="70" height="40" as="geometry" />
        </mxCell>
        <mxCell id="HgbUeuQE3SL_m8R81Lgc-42" value="" style="endArrow=none;html=1;rounded=0;" parent="1" source="HgbUeuQE3SL_m8R81Lgc-3" target="HgbUeuQE3SL_m8R81Lgc-39" edge="1">
          <mxGeometry width="50" height="50" relative="1" as="geometry">
            <mxPoint x="310" y="280" as="sourcePoint" />
            <mxPoint x="215" y="242" as="targetPoint" />
          </mxGeometry>
        </mxCell>
        <mxCell id="HgbUeuQE3SL_m8R81Lgc-44" value="" style="endArrow=none;html=1;rounded=0;" parent="1" source="HgbUeuQE3SL_m8R81Lgc-3" target="HgbUeuQE3SL_m8R81Lgc-37" edge="1">
          <mxGeometry width="50" height="50" relative="1" as="geometry">
            <mxPoint x="380" y="401" as="sourcePoint" />
            <mxPoint x="355" y="410" as="targetPoint" />
          </mxGeometry>
        </mxCell>
        <mxCell id="HgbUeuQE3SL_m8R81Lgc-45" value="" style="endArrow=none;html=1;rounded=0;" parent="1" source="HgbUeuQE3SL_m8R81Lgc-3" target="HgbUeuQE3SL_m8R81Lgc-38" edge="1">
          <mxGeometry width="50" height="50" relative="1" as="geometry">
            <mxPoint x="390" y="411" as="sourcePoint" />
            <mxPoint x="365" y="420" as="targetPoint" />
          </mxGeometry>
        </mxCell>
        <mxCell id="HgbUeuQE3SL_m8R81Lgc-46" value="" style="endArrow=none;html=1;rounded=0;" parent="1" source="HgbUeuQE3SL_m8R81Lgc-3" target="HgbUeuQE3SL_m8R81Lgc-41" edge="1">
          <mxGeometry width="50" height="50" relative="1" as="geometry">
            <mxPoint x="400" y="421" as="sourcePoint" />
            <mxPoint x="375" y="430" as="targetPoint" />
          </mxGeometry>
        </mxCell>
        <mxCell id="HgbUeuQE3SL_m8R81Lgc-47" value="" style="endArrow=none;html=1;rounded=0;exitX=0.75;exitY=1;exitDx=0;exitDy=0;entryX=0;entryY=0;entryDx=0;entryDy=0;" parent="1" source="HgbUeuQE3SL_m8R81Lgc-3" target="HgbUeuQE3SL_m8R81Lgc-40" edge="1">
          <mxGeometry width="50" height="50" relative="1" as="geometry">
            <mxPoint x="410" y="431" as="sourcePoint" />
            <mxPoint x="385" y="440" as="targetPoint" />
          </mxGeometry>
        </mxCell>
      </root>
    </mxGraphModel>
  </diagram>
</mxfile>
